/* XPM */
static char * close_xpm[] = {
"52 30 3 1",
" 	c #afafaf",
".	c #5ea3da",
"+	c #90A3D4",
"                                                    ",
"....................................................",
"....................................................",
"....................................................",
"....................................................",
"....................................................",
"....................................................",
"....................................................",
"....................................................",
"....................................................",
"....................................................",
"....................................................",
"....................................................",
"....................................................",
"....................................................",
"....................................................",
"....................................................",
"....................................................",
"....................................................",
"....................................................",
"....................................................",
"....................................................",
"....................................................",
"....................................................",
"....................................................",
"....................................................",
"....................................................",
"....................................................",
"....................................................",
"++++++++++++++++++++++++++++++++++++++++++++++++++++"};
