/* XPM */
static char * left_active_xpm[] = {
"6 20 3 1",
" 	c None",
"+	c #5ea3da",
".	c #afafaf",
".+++++",
".+++++",
".+++++",
".+++++",
".+++++",
".+++++",
".+++++",
".+++++",
".+++++",
".+++++",
".+++++",
".+++++",
".+++++",
".+++++",
".+++++",
".+++++",
".+++++",
".+++++",
".+++++",
".+++++"};
