/* XPM */
static char * title_6_active_xpm[] = {
"5 30 3 1",
" 	c #1d1d1d",
".	c #c9c9c9",
"+	c #c9c9c9",
"     ",
".....",
".....",
".....",
".....",
".....",
".....",
".....",
".....",
".....",
".....",
".....",
".....",
".....",
".....",
".....",
".....",
".....",
".....",
".....",
".....",
".....",
".....",
".....",
".....",
".....",
".....",
".....",
".....",
"+++++"};
